%YAML 1.1
%TAG !u! tag:unity3d.com,2011:
--- !u!29 &1
OcclusionCullingSettings:
  m_ObjectHideFlags: 0
  serializedVersion: 2
  m_OcclusionBakeSettings:
    smallestOccluder: 5
    smallestHole: 0.25
    backfaceThreshold: 100
  m_SceneGUID: 00000000000000000000000000000000
  m_OcclusionCullingData: {fileID: 0}
--- !u!104 &2
RenderSettings:
  m_ObjectHideFlags: 0
  serializedVersion: 8
  m_Fog: 0
  m_FogColor: {r: 0.5, g: 0.5, b: 0.5, a: 1}
  m_FogMode: 3
  m_FogDensity: 0.01
  m_LinearFogStart: 0
  m_LinearFogEnd: 300
  m_AmbientSkyColor: {r: 0.212, g: 0.227, b: 0.259, a: 1}
  m_AmbientEquatorColor: {r: 0.114, g: 0.125, b: 0.133, a: 1}
  m_AmbientGroundColor: {r: 0.047, g: 0.043, b: 0.035, a: 1}
  m_AmbientIntensity: 1
  m_AmbientMode: 3
  m_SubtractiveShadowColor: {r: 0.42, g: 0.478, b: 0.627, a: 1}
  m_SkyboxMaterial: {fileID: 0}
  m_HaloStrength: 0.5
  m_FlareStrength: 1
  m_FlareFadeSpeed: 3
  m_HaloTexture: {fileID: 0}
  m_SpotCookie: {fileID: 10001, guid: 0000000000000000e000000000000000, type: 0}
  m_DefaultReflectionMode: 0
  m_DefaultReflectionResolution: 128
  m_ReflectionBounces: 1
  m_ReflectionIntensity: 1
  m_CustomReflection: {fileID: 0}
  m_Sun: {fileID: 0}
  m_IndirectSpecularColor: {r: 0, g: 0, b: 0, a: 1}
--- !u!157 &3
LightmapSettings:
  m_ObjectHideFlags: 0
  serializedVersion: 11
  m_GIWorkflowMode: 1
  m_GISettings:
    serializedVersion: 2
    m_BounceScale: 1
    m_IndirectOutputScale: 1
    m_AlbedoBoost: 1
    m_TemporalCoherenceThreshold: 1
    m_EnvironmentLightingMode: 0
    m_EnableBakedLightmaps: 0
    m_EnableRealtimeLightmaps: 0
  m_LightmapEditorSettings:
    serializedVersion: 9
    m_Resolution: 2
    m_BakeResolution: 40
    m_TextureWidth: 1024
    m_TextureHeight: 1024
    m_AO: 0
    m_AOMaxDistance: 1
    m_CompAOExponent: 1
    m_CompAOExponentDirect: 0
    m_Padding: 2
    m_LightmapParameters: {fileID: 0}
    m_LightmapsBakeMode: 1
    m_TextureCompression: 1
    m_FinalGather: 0
    m_FinalGatherFiltering: 1
    m_FinalGatherRayCount: 256
    m_ReflectionCompression: 2
    m_MixedBakeMode: 2
    m_BakeBackend: 0
    m_PVRSampling: 1
    m_PVRDirectSampleCount: 32
    m_PVRSampleCount: 500
    m_PVRBounces: 2
    m_PVRFiltering: 0
    m_PVRFilteringMode: 1
    m_PVRCulling: 1
    m_PVRFilteringGaussRadiusDirect: 1
    m_PVRFilteringGaussRadiusIndirect: 5
    m_PVRFilteringGaussRadiusAO: 2
    m_PVRFilteringAtrousColorSigma: 1
    m_PVRFilteringAtrousNormalSigma: 1
    m_PVRFilteringAtrousPositionSigma: 1
  m_LightingDataAsset: {fileID: 0}
  m_UseShadowmask: 1
--- !u!196 &4
NavMeshSettings:
  serializedVersion: 2
  m_ObjectHideFlags: 0
  m_BuildSettings:
    serializedVersion: 2
    agentTypeID: 0
    agentRadius: 0.5
    agentHeight: 2
    agentSlope: 45
    agentClimb: 0.4
    ledgeDropHeight: 0
    maxJumpAcrossDistance: 0
    minRegionArea: 2
    manualCellSize: 0
    cellSize: 0.16666667
    manualTileSize: 0
    tileSize: 256
    accuratePlacement: 0
  m_NavMeshData: {fileID: 0}
--- !u!1001 &297294032
Prefab:
  m_ObjectHideFlags: 0
  serializedVersion: 2
  m_Modification:
    m_TransformParent: {fileID: 0}
    m_Modifications:
    - target: {fileID: 4526797346162698, guid: 674782c5ed5a66a4e8c81ecfb8868c7e, type: 2}
      propertyPath: m_LocalPosition.x
      value: 0
      objectReference: {fileID: 0}
    - target: {fileID: 4526797346162698, guid: 674782c5ed5a66a4e8c81ecfb8868c7e, type: 2}
      propertyPath: m_LocalPosition.y
      value: 0
      objectReference: {fileID: 0}
    - target: {fileID: 4526797346162698, guid: 674782c5ed5a66a4e8c81ecfb8868c7e, type: 2}
      propertyPath: m_LocalPosition.z
      value: 0
      objectReference: {fileID: 0}
    - target: {fileID: 4526797346162698, guid: 674782c5ed5a66a4e8c81ecfb8868c7e, type: 2}
      propertyPath: m_LocalRotation.x
      value: 0
      objectReference: {fileID: 0}
    - target: {fileID: 4526797346162698, guid: 674782c5ed5a66a4e8c81ecfb8868c7e, type: 2}
      propertyPath: m_LocalRotation.y
      value: 0
      objectReference: {fileID: 0}
    - target: {fileID: 4526797346162698, guid: 674782c5ed5a66a4e8c81ecfb8868c7e, type: 2}
      propertyPath: m_LocalRotation.z
      value: 0
      objectReference: {fileID: 0}
    - target: {fileID: 4526797346162698, guid: 674782c5ed5a66a4e8c81ecfb8868c7e, type: 2}
      propertyPath: m_LocalRotation.w
      value: 1
      objectReference: {fileID: 0}
    - target: {fileID: 4526797346162698, guid: 674782c5ed5a66a4e8c81ecfb8868c7e, type: 2}
      propertyPath: m_RootOrder
      value: 1
      objectReference: {fileID: 0}
    m_RemovedComponents: []
  m_ParentPrefab: {fileID: 100100000, guid: 674782c5ed5a66a4e8c81ecfb8868c7e, type: 2}
  m_IsPrefabParent: 0
--- !u!114 &297294033 stripped
MonoBehaviour:
  m_PrefabParentObject: {fileID: 114027889147698746, guid: 674782c5ed5a66a4e8c81ecfb8868c7e,
    type: 2}
  m_PrefabInternal: {fileID: 297294032}
  m_Script: {fileID: 11500000, guid: 0014bfa44a572af4d8c0433b41ed58b8, type: 3}
--- !u!1001 &471961170
Prefab:
  m_ObjectHideFlags: 0
  serializedVersion: 2
  m_Modification:
    m_TransformParent: {fileID: 0}
    m_Modifications:
    - target: {fileID: 224569972111151288, guid: 8be6c35c2c7d5f749a222df392275188,
        type: 2}
      propertyPath: m_LocalPosition.x
      value: 0
      objectReference: {fileID: 0}
    - target: {fileID: 224569972111151288, guid: 8be6c35c2c7d5f749a222df392275188,
        type: 2}
      propertyPath: m_LocalPosition.y
      value: 0
      objectReference: {fileID: 0}
    - target: {fileID: 224569972111151288, guid: 8be6c35c2c7d5f749a222df392275188,
        type: 2}
      propertyPath: m_LocalPosition.z
      value: 0
      objectReference: {fileID: 0}
    - target: {fileID: 224569972111151288, guid: 8be6c35c2c7d5f749a222df392275188,
        type: 2}
      propertyPath: m_LocalRotation.x
      value: 0
      objectReference: {fileID: 0}
    - target: {fileID: 224569972111151288, guid: 8be6c35c2c7d5f749a222df392275188,
        type: 2}
      propertyPath: m_LocalRotation.y
      value: 0
      objectReference: {fileID: 0}
    - target: {fileID: 224569972111151288, guid: 8be6c35c2c7d5f749a222df392275188,
        type: 2}
      propertyPath: m_LocalRotation.z
      value: 0
      objectReference: {fileID: 0}
    - target: {fileID: 224569972111151288, guid: 8be6c35c2c7d5f749a222df392275188,
        type: 2}
      propertyPath: m_LocalRotation.w
      value: 1
      objectReference: {fileID: 0}
    - target: {fileID: 224569972111151288, guid: 8be6c35c2c7d5f749a222df392275188,
        type: 2}
      propertyPath: m_RootOrder
      value: 2
      objectReference: {fileID: 0}
    - target: {fileID: 224569972111151288, guid: 8be6c35c2c7d5f749a222df392275188,
        type: 2}
      propertyPath: m_AnchoredPosition.x
      value: 0
      objectReference: {fileID: 0}
    - target: {fileID: 224569972111151288, guid: 8be6c35c2c7d5f749a222df392275188,
        type: 2}
      propertyPath: m_AnchoredPosition.y
      value: 0
      objectReference: {fileID: 0}
    - target: {fileID: 224569972111151288, guid: 8be6c35c2c7d5f749a222df392275188,
        type: 2}
      propertyPath: m_SizeDelta.x
      value: 0
      objectReference: {fileID: 0}
    - target: {fileID: 224569972111151288, guid: 8be6c35c2c7d5f749a222df392275188,
        type: 2}
      propertyPath: m_SizeDelta.y
      value: 0
      objectReference: {fileID: 0}
    - target: {fileID: 224569972111151288, guid: 8be6c35c2c7d5f749a222df392275188,
        type: 2}
      propertyPath: m_AnchorMin.x
      value: 0
      objectReference: {fileID: 0}
    - target: {fileID: 224569972111151288, guid: 8be6c35c2c7d5f749a222df392275188,
        type: 2}
      propertyPath: m_AnchorMin.y
      value: 0
      objectReference: {fileID: 0}
    - target: {fileID: 224569972111151288, guid: 8be6c35c2c7d5f749a222df392275188,
        type: 2}
      propertyPath: m_AnchorMax.x
      value: 0
      objectReference: {fileID: 0}
    - target: {fileID: 224569972111151288, guid: 8be6c35c2c7d5f749a222df392275188,
        type: 2}
      propertyPath: m_AnchorMax.y
      value: 0
      objectReference: {fileID: 0}
    - target: {fileID: 224569972111151288, guid: 8be6c35c2c7d5f749a222df392275188,
        type: 2}
      propertyPath: m_Pivot.x
      value: 0
      objectReference: {fileID: 0}
    - target: {fileID: 224569972111151288, guid: 8be6c35c2c7d5f749a222df392275188,
        type: 2}
      propertyPath: m_Pivot.y
      value: 0
      objectReference: {fileID: 0}
    - target: {fileID: 114293600863158430, guid: 8be6c35c2c7d5f749a222df392275188,
        type: 2}
      propertyPath: m_OnClick.m_PersistentCalls.m_Calls.Array.data[0].m_Target
      value: 
      objectReference: {fileID: 2021511371}
    - target: {fileID: 114447695015619926, guid: 8be6c35c2c7d5f749a222df392275188,
        type: 2}
      propertyPath: m_OnClick.m_PersistentCalls.m_Calls.Array.data[0].m_Target
      value: 
      objectReference: {fileID: 2021511371}
    - target: {fileID: 114427335245222692, guid: 8be6c35c2c7d5f749a222df392275188,
        type: 2}
      propertyPath: m_OnClick.m_PersistentCalls.m_Calls.Array.data[0].m_Target
      value: 
      objectReference: {fileID: 297294033}
    - target: {fileID: 224384157334890830, guid: 8be6c35c2c7d5f749a222df392275188,
        type: 2}
      propertyPath: m_AnchorMax.y
      value: 1
      objectReference: {fileID: 0}
    - target: {fileID: 224147258517070526, guid: 8be6c35c2c7d5f749a222df392275188,
        type: 2}
      propertyPath: m_AnchorMax.y
      value: 1
      objectReference: {fileID: 0}
    - target: {fileID: 224065170550167720, guid: 8be6c35c2c7d5f749a222df392275188,
        type: 2}
      propertyPath: m_AnchorMax.y
      value: 1
      objectReference: {fileID: 0}
    - target: {fileID: 224518611473016624, guid: 8be6c35c2c7d5f749a222df392275188,
        type: 2}
      propertyPath: m_AnchorMax.y
      value: 1
      objectReference: {fileID: 0}
    - target: {fileID: 224542235819107738, guid: 8be6c35c2c7d5f749a222df392275188,
        type: 2}
      propertyPath: m_RootOrder
      value: 8
      objectReference: {fileID: 0}
    - target: {fileID: 224679446734210298, guid: 8be6c35c2c7d5f749a222df392275188,
        type: 2}
      propertyPath: m_RootOrder
      value: 5
      objectReference: {fileID: 0}
    - target: {fileID: 224327969215794644, guid: 8be6c35c2c7d5f749a222df392275188,
        type: 2}
      propertyPath: m_RootOrder
      value: 6
      objectReference: {fileID: 0}
    - target: {fileID: 224991968320371432, guid: 8be6c35c2c7d5f749a222df392275188,
        type: 2}
      propertyPath: m_RootOrder
      value: 7
      objectReference: {fileID: 0}
    - target: {fileID: 224928445088598692, guid: 8be6c35c2c7d5f749a222df392275188,
        type: 2}
      propertyPath: m_RootOrder
      value: 4
      objectReference: {fileID: 0}
    - target: {fileID: 224337967597959126, guid: 8be6c35c2c7d5f749a222df392275188,
        type: 2}
      propertyPath: m_RootOrder
      value: 3
      objectReference: {fileID: 0}
    - target: {fileID: 224287858661912538, guid: 8be6c35c2c7d5f749a222df392275188,
        type: 2}
      propertyPath: m_RootOrder
      value: 2
      objectReference: {fileID: 0}
    m_RemovedComponents: []
  m_ParentPrefab: {fileID: 100100000, guid: 8be6c35c2c7d5f749a222df392275188, type: 2}
  m_IsPrefabParent: 0
--- !u!114 &471961171 stripped
MonoBehaviour:
  m_PrefabParentObject: {fileID: 114603713617798466, guid: 8be6c35c2c7d5f749a222df392275188,
    type: 2}
  m_PrefabInternal: {fileID: 471961170}
  m_Script: {fileID: -113659843, guid: f70555f144d8491a825f0804e09c671c, type: 3}
--- !u!114 &471961172 stripped
MonoBehaviour:
  m_PrefabParentObject: {fileID: 114356926836588196, guid: 8be6c35c2c7d5f749a222df392275188,
    type: 2}
  m_PrefabInternal: {fileID: 471961170}
  m_Script: {fileID: -113659843, guid: f70555f144d8491a825f0804e09c671c, type: 3}
--- !u!1001 &892146832
Prefab:
  m_ObjectHideFlags: 0
  serializedVersion: 2
  m_Modification:
    m_TransformParent: {fileID: 0}
    m_Modifications:
    - target: {fileID: 4884500252850456, guid: 78c781f1e7ce9dc4291e8d262e08077a, type: 2}
      propertyPath: m_LocalPosition.x
      value: 0
      objectReference: {fileID: 0}
    - target: {fileID: 4884500252850456, guid: 78c781f1e7ce9dc4291e8d262e08077a, type: 2}
      propertyPath: m_LocalPosition.y
      value: 0
      objectReference: {fileID: 0}
    - target: {fileID: 4884500252850456, guid: 78c781f1e7ce9dc4291e8d262e08077a, type: 2}
      propertyPath: m_LocalPosition.z
      value: 0
      objectReference: {fileID: 0}
    - target: {fileID: 4884500252850456, guid: 78c781f1e7ce9dc4291e8d262e08077a, type: 2}
      propertyPath: m_LocalRotation.x
      value: 0
      objectReference: {fileID: 0}
    - target: {fileID: 4884500252850456, guid: 78c781f1e7ce9dc4291e8d262e08077a, type: 2}
      propertyPath: m_LocalRotation.y
      value: 0
      objectReference: {fileID: 0}
    - target: {fileID: 4884500252850456, guid: 78c781f1e7ce9dc4291e8d262e08077a, type: 2}
      propertyPath: m_LocalRotation.z
      value: 0
      objectReference: {fileID: 0}
    - target: {fileID: 4884500252850456, guid: 78c781f1e7ce9dc4291e8d262e08077a, type: 2}
      propertyPath: m_LocalRotation.w
      value: 1
      objectReference: {fileID: 0}
    - target: {fileID: 4884500252850456, guid: 78c781f1e7ce9dc4291e8d262e08077a, type: 2}
      propertyPath: m_RootOrder
      value: 3
      objectReference: {fileID: 0}
    m_RemovedComponents: []
  m_ParentPrefab: {fileID: 100100000, guid: 78c781f1e7ce9dc4291e8d262e08077a, type: 2}
  m_IsPrefabParent: 0
--- !u!1001 &1236645193
Prefab:
  m_ObjectHideFlags: 0
  serializedVersion: 2
  m_Modification:
    m_TransformParent: {fileID: 0}
    m_Modifications:
    - target: {fileID: 4237046659902524, guid: 40ce8d5f3a793cb40b7b0d343c803ac1, type: 2}
      propertyPath: m_LocalPosition.x
      value: 0
      objectReference: {fileID: 0}
    - target: {fileID: 4237046659902524, guid: 40ce8d5f3a793cb40b7b0d343c803ac1, type: 2}
      propertyPath: m_LocalPosition.y
      value: 0
      objectReference: {fileID: 0}
    - target: {fileID: 4237046659902524, guid: 40ce8d5f3a793cb40b7b0d343c803ac1, type: 2}
      propertyPath: m_LocalPosition.z
      value: -10
      objectReference: {fileID: 0}
    - target: {fileID: 4237046659902524, guid: 40ce8d5f3a793cb40b7b0d343c803ac1, type: 2}
      propertyPath: m_LocalRotation.x
      value: 0
      objectReference: {fileID: 0}
    - target: {fileID: 4237046659902524, guid: 40ce8d5f3a793cb40b7b0d343c803ac1, type: 2}
      propertyPath: m_LocalRotation.y
      value: 0
      objectReference: {fileID: 0}
    - target: {fileID: 4237046659902524, guid: 40ce8d5f3a793cb40b7b0d343c803ac1, type: 2}
      propertyPath: m_LocalRotation.z
      value: 0
      objectReference: {fileID: 0}
    - target: {fileID: 4237046659902524, guid: 40ce8d5f3a793cb40b7b0d343c803ac1, type: 2}
      propertyPath: m_LocalRotation.w
      value: 1
      objectReference: {fileID: 0}
    - target: {fileID: 4237046659902524, guid: 40ce8d5f3a793cb40b7b0d343c803ac1, type: 2}
      propertyPath: m_RootOrder
      value: 0
      objectReference: {fileID: 0}
    m_RemovedComponents: []
  m_ParentPrefab: {fileID: 100100000, guid: 40ce8d5f3a793cb40b7b0d343c803ac1, type: 2}
  m_IsPrefabParent: 0
--- !u!1001 &2021511370
Prefab:
  m_ObjectHideFlags: 0
  serializedVersion: 2
  m_Modification:
    m_TransformParent: {fileID: 0}
    m_Modifications:
    - target: {fileID: 4417194327670830, guid: f9c62f421441d674e804d72139009e32, type: 2}
      propertyPath: m_LocalPosition.x
      value: 0
      objectReference: {fileID: 0}
    - target: {fileID: 4417194327670830, guid: f9c62f421441d674e804d72139009e32, type: 2}
      propertyPath: m_LocalPosition.y
      value: 0
      objectReference: {fileID: 0}
    - target: {fileID: 4417194327670830, guid: f9c62f421441d674e804d72139009e32, type: 2}
      propertyPath: m_LocalPosition.z
      value: 0
      objectReference: {fileID: 0}
    - target: {fileID: 4417194327670830, guid: f9c62f421441d674e804d72139009e32, type: 2}
      propertyPath: m_LocalRotation.x
      value: 0
      objectReference: {fileID: 0}
    - target: {fileID: 4417194327670830, guid: f9c62f421441d674e804d72139009e32, type: 2}
      propertyPath: m_LocalRotation.y
      value: 0
      objectReference: {fileID: 0}
    - target: {fileID: 4417194327670830, guid: f9c62f421441d674e804d72139009e32, type: 2}
      propertyPath: m_LocalRotation.z
      value: 0
      objectReference: {fileID: 0}
    - target: {fileID: 4417194327670830, guid: f9c62f421441d674e804d72139009e32, type: 2}
      propertyPath: m_LocalRotation.w
      value: 1
      objectReference: {fileID: 0}
    - target: {fileID: 4417194327670830, guid: f9c62f421441d674e804d72139009e32, type: 2}
      propertyPath: m_RootOrder
      value: 4
      objectReference: {fileID: 0}
    - target: {fileID: 114884862991718884, guid: f9c62f421441d674e804d72139009e32,
        type: 2}
      propertyPath: VolumeSlider
      value: 
      objectReference: {fileID: 471961172}
    - target: {fileID: 114884862991718884, guid: f9c62f421441d674e804d72139009e32,
        type: 2}
      propertyPath: DifficultySlider
      value: 
      objectReference: {fileID: 471961171}
    m_RemovedComponents: []
  m_ParentPrefab: {fileID: 100100000, guid: f9c62f421441d674e804d72139009e32, type: 2}
  m_IsPrefabParent: 0
--- !u!114 &2021511371 stripped
MonoBehaviour:
  m_PrefabParentObject: {fileID: 114884862991718884, guid: f9c62f421441d674e804d72139009e32,
    type: 2}
  m_PrefabInternal: {fileID: 2021511370}
  m_Script: {fileID: 11500000, guid: 0219bb128d4383c48821158075e84859, type: 3}
