%YAML 1.1
%TAG !u! tag:unity3d.com,2011:
--- !u!29 &1
OcclusionCullingSettings:
  m_ObjectHideFlags: 0
  serializedVersion: 2
  m_OcclusionBakeSettings:
    smallestOccluder: 5
    smallestHole: 0.25
    backfaceThreshold: 100
  m_SceneGUID: 00000000000000000000000000000000
  m_OcclusionCullingData: {fileID: 0}
--- !u!104 &2
RenderSettings:
  m_ObjectHideFlags: 0
  serializedVersion: 9
  m_Fog: 0
  m_FogColor: {r: 0.5, g: 0.5, b: 0.5, a: 1}
  m_FogMode: 3
  m_FogDensity: 0.01
  m_LinearFogStart: 0
  m_LinearFogEnd: 300
  m_AmbientSkyColor: {r: 0.212, g: 0.227, b: 0.259, a: 1}
  m_AmbientEquatorColor: {r: 0.114, g: 0.125, b: 0.133, a: 1}
  m_AmbientGroundColor: {r: 0.047, g: 0.043, b: 0.035, a: 1}
  m_AmbientIntensity: 1
  m_AmbientMode: 3
  m_SubtractiveShadowColor: {r: 0.42, g: 0.478, b: 0.627, a: 1}
  m_SkyboxMaterial: {fileID: 0}
  m_HaloStrength: 0.5
  m_FlareStrength: 1
  m_FlareFadeSpeed: 3
  m_HaloTexture: {fileID: 0}
  m_SpotCookie: {fileID: 10001, guid: 0000000000000000e000000000000000, type: 0}
  m_DefaultReflectionMode: 0
  m_DefaultReflectionResolution: 128
  m_ReflectionBounces: 1
  m_ReflectionIntensity: 1
  m_CustomReflection: {fileID: 0}
  m_Sun: {fileID: 0}
  m_IndirectSpecularColor: {r: 0, g: 0, b: 0, a: 1}
  m_UseRadianceAmbientProbe: 0
--- !u!157 &3
LightmapSettings:
  m_ObjectHideFlags: 0
  serializedVersion: 11
  m_GIWorkflowMode: 1
  m_GISettings:
    serializedVersion: 2
    m_BounceScale: 1
    m_IndirectOutputScale: 1
    m_AlbedoBoost: 1
    m_TemporalCoherenceThreshold: 1
    m_EnvironmentLightingMode: 0
    m_EnableBakedLightmaps: 0
    m_EnableRealtimeLightmaps: 0
  m_LightmapEditorSettings:
    serializedVersion: 10
    m_Resolution: 2
    m_BakeResolution: 40
    m_AtlasSize: 1024
    m_AO: 0
    m_AOMaxDistance: 1
    m_CompAOExponent: 1
    m_CompAOExponentDirect: 0
    m_Padding: 2
    m_LightmapParameters: {fileID: 0}
    m_LightmapsBakeMode: 1
    m_TextureCompression: 1
    m_FinalGather: 0
    m_FinalGatherFiltering: 1
    m_FinalGatherRayCount: 256
    m_ReflectionCompression: 2
    m_MixedBakeMode: 2
    m_BakeBackend: 0
    m_PVRSampling: 1
    m_PVRDirectSampleCount: 32
    m_PVRSampleCount: 500
    m_PVRBounces: 2
    m_PVRFilterTypeDirect: 0
    m_PVRFilterTypeIndirect: 0
    m_PVRFilterTypeAO: 0
    m_PVRFilteringMode: 1
    m_PVRCulling: 1
    m_PVRFilteringGaussRadiusDirect: 1
    m_PVRFilteringGaussRadiusIndirect: 5
    m_PVRFilteringGaussRadiusAO: 2
    m_PVRFilteringAtrousPositionSigmaDirect: 0.5
    m_PVRFilteringAtrousPositionSigmaIndirect: 2
    m_PVRFilteringAtrousPositionSigmaAO: 1
    m_ShowResolutionOverlay: 1
  m_LightingDataAsset: {fileID: 0}
  m_UseShadowmask: 1
--- !u!196 &4
NavMeshSettings:
  serializedVersion: 2
  m_ObjectHideFlags: 0
  m_BuildSettings:
    serializedVersion: 2
    agentTypeID: 0
    agentRadius: 0.5
    agentHeight: 2
    agentSlope: 45
    agentClimb: 0.4
    ledgeDropHeight: 0
    maxJumpAcrossDistance: 0
    minRegionArea: 2
    manualCellSize: 0
    cellSize: 0.16666667
    manualTileSize: 0
    tileSize: 256
    accuratePlacement: 0
    debug:
      m_Flags: 0
  m_NavMeshData: {fileID: 0}
--- !u!1001 &116909899
Prefab:
  m_ObjectHideFlags: 0
  serializedVersion: 2
  m_Modification:
    m_TransformParent: {fileID: 0}
    m_Modifications:
    - target: {fileID: 4237046659902524, guid: 40ce8d5f3a793cb40b7b0d343c803ac1, type: 2}
      propertyPath: m_LocalPosition.x
      value: 4.99
      objectReference: {fileID: 0}
    - target: {fileID: 4237046659902524, guid: 40ce8d5f3a793cb40b7b0d343c803ac1, type: 2}
      propertyPath: m_LocalPosition.y
      value: 2.99
      objectReference: {fileID: 0}
    - target: {fileID: 4237046659902524, guid: 40ce8d5f3a793cb40b7b0d343c803ac1, type: 2}
      propertyPath: m_LocalPosition.z
      value: -10
      objectReference: {fileID: 0}
    - target: {fileID: 4237046659902524, guid: 40ce8d5f3a793cb40b7b0d343c803ac1, type: 2}
      propertyPath: m_LocalRotation.x
      value: 0
      objectReference: {fileID: 0}
    - target: {fileID: 4237046659902524, guid: 40ce8d5f3a793cb40b7b0d343c803ac1, type: 2}
      propertyPath: m_LocalRotation.y
      value: 0
      objectReference: {fileID: 0}
    - target: {fileID: 4237046659902524, guid: 40ce8d5f3a793cb40b7b0d343c803ac1, type: 2}
      propertyPath: m_LocalRotation.z
      value: 0
      objectReference: {fileID: 0}
    - target: {fileID: 4237046659902524, guid: 40ce8d5f3a793cb40b7b0d343c803ac1, type: 2}
      propertyPath: m_LocalRotation.w
      value: 1
      objectReference: {fileID: 0}
    - target: {fileID: 4237046659902524, guid: 40ce8d5f3a793cb40b7b0d343c803ac1, type: 2}
      propertyPath: m_RootOrder
      value: 0
      objectReference: {fileID: 0}
    - target: {fileID: 20269708507626322, guid: 40ce8d5f3a793cb40b7b0d343c803ac1,
        type: 2}
      propertyPath: orthographic size
      value: 3.3841076
      objectReference: {fileID: 0}
    - target: {fileID: 20269708507626322, guid: 40ce8d5f3a793cb40b7b0d343c803ac1,
        type: 2}
      propertyPath: m_Depth
      value: -1
      objectReference: {fileID: 0}
    m_RemovedComponents: []
  m_ParentPrefab: {fileID: 100100000, guid: 40ce8d5f3a793cb40b7b0d343c803ac1, type: 2}
  m_IsPrefabParent: 0
--- !u!1001 &205179287
Prefab:
  m_ObjectHideFlags: 0
  serializedVersion: 2
  m_Modification:
    m_TransformParent: {fileID: 0}
    m_Modifications:
    - target: {fileID: 224670241319287206, guid: ff73ac2c496f8f34b930d5affd0191c9,
        type: 2}
      propertyPath: m_LocalPosition.x
      value: 0
      objectReference: {fileID: 0}
    - target: {fileID: 224670241319287206, guid: ff73ac2c496f8f34b930d5affd0191c9,
        type: 2}
      propertyPath: m_LocalPosition.y
      value: 0
      objectReference: {fileID: 0}
    - target: {fileID: 224670241319287206, guid: ff73ac2c496f8f34b930d5affd0191c9,
        type: 2}
      propertyPath: m_LocalPosition.z
      value: 0
      objectReference: {fileID: 0}
    - target: {fileID: 224670241319287206, guid: ff73ac2c496f8f34b930d5affd0191c9,
        type: 2}
      propertyPath: m_LocalRotation.x
      value: -0
      objectReference: {fileID: 0}
    - target: {fileID: 224670241319287206, guid: ff73ac2c496f8f34b930d5affd0191c9,
        type: 2}
      propertyPath: m_LocalRotation.y
      value: -0
      objectReference: {fileID: 0}
    - target: {fileID: 224670241319287206, guid: ff73ac2c496f8f34b930d5affd0191c9,
        type: 2}
      propertyPath: m_LocalRotation.z
      value: -0
      objectReference: {fileID: 0}
    - target: {fileID: 224670241319287206, guid: ff73ac2c496f8f34b930d5affd0191c9,
        type: 2}
      propertyPath: m_LocalRotation.w
      value: 1
      objectReference: {fileID: 0}
    - target: {fileID: 224670241319287206, guid: ff73ac2c496f8f34b930d5affd0191c9,
        type: 2}
      propertyPath: m_RootOrder
      value: 7
      objectReference: {fileID: 0}
    - target: {fileID: 224670241319287206, guid: ff73ac2c496f8f34b930d5affd0191c9,
        type: 2}
      propertyPath: m_AnchoredPosition.x
      value: 0
      objectReference: {fileID: 0}
    - target: {fileID: 224670241319287206, guid: ff73ac2c496f8f34b930d5affd0191c9,
        type: 2}
      propertyPath: m_AnchoredPosition.y
      value: -0.100997925
      objectReference: {fileID: 0}
    - target: {fileID: 224670241319287206, guid: ff73ac2c496f8f34b930d5affd0191c9,
        type: 2}
      propertyPath: m_SizeDelta.x
      value: 100
      objectReference: {fileID: 0}
    - target: {fileID: 224670241319287206, guid: ff73ac2c496f8f34b930d5affd0191c9,
        type: 2}
      propertyPath: m_SizeDelta.y
      value: 100
      objectReference: {fileID: 0}
    - target: {fileID: 224670241319287206, guid: ff73ac2c496f8f34b930d5affd0191c9,
        type: 2}
      propertyPath: m_AnchorMin.x
      value: 0.5
      objectReference: {fileID: 0}
    - target: {fileID: 224670241319287206, guid: ff73ac2c496f8f34b930d5affd0191c9,
        type: 2}
      propertyPath: m_AnchorMin.y
      value: 0.5
      objectReference: {fileID: 0}
    - target: {fileID: 224670241319287206, guid: ff73ac2c496f8f34b930d5affd0191c9,
        type: 2}
      propertyPath: m_AnchorMax.x
      value: 0.5
      objectReference: {fileID: 0}
    - target: {fileID: 224670241319287206, guid: ff73ac2c496f8f34b930d5affd0191c9,
        type: 2}
      propertyPath: m_AnchorMax.y
      value: 0.5
      objectReference: {fileID: 0}
    - target: {fileID: 224670241319287206, guid: ff73ac2c496f8f34b930d5affd0191c9,
        type: 2}
      propertyPath: m_Pivot.x
      value: 0.5
      objectReference: {fileID: 0}
    - target: {fileID: 224670241319287206, guid: ff73ac2c496f8f34b930d5affd0191c9,
        type: 2}
      propertyPath: m_Pivot.y
      value: 0.499
      objectReference: {fileID: 0}
    m_RemovedComponents: []
  m_ParentPrefab: {fileID: 100100000, guid: ff73ac2c496f8f34b930d5affd0191c9, type: 2}
  m_IsPrefabParent: 0
--- !u!1001 &677740858
Prefab:
  m_ObjectHideFlags: 0
  serializedVersion: 2
  m_Modification:
    m_TransformParent: {fileID: 0}
    m_Modifications:
    - target: {fileID: 4286766746618944, guid: e78ecfb3943b9f849b3cf6d6e0481a12, type: 2}
      propertyPath: m_LocalPosition.x
      value: 14
      objectReference: {fileID: 0}
    - target: {fileID: 4286766746618944, guid: e78ecfb3943b9f849b3cf6d6e0481a12, type: 2}
      propertyPath: m_LocalPosition.y
      value: 3
      objectReference: {fileID: 0}
    - target: {fileID: 4286766746618944, guid: e78ecfb3943b9f849b3cf6d6e0481a12, type: 2}
      propertyPath: m_LocalPosition.z
      value: 0
      objectReference: {fileID: 0}
    - target: {fileID: 4286766746618944, guid: e78ecfb3943b9f849b3cf6d6e0481a12, type: 2}
      propertyPath: m_LocalRotation.x
      value: 0
      objectReference: {fileID: 0}
    - target: {fileID: 4286766746618944, guid: e78ecfb3943b9f849b3cf6d6e0481a12, type: 2}
      propertyPath: m_LocalRotation.y
      value: 0
      objectReference: {fileID: 0}
    - target: {fileID: 4286766746618944, guid: e78ecfb3943b9f849b3cf6d6e0481a12, type: 2}
      propertyPath: m_LocalRotation.z
      value: 0
      objectReference: {fileID: 0}
    - target: {fileID: 4286766746618944, guid: e78ecfb3943b9f849b3cf6d6e0481a12, type: 2}
      propertyPath: m_LocalRotation.w
      value: 1
      objectReference: {fileID: 0}
    - target: {fileID: 4286766746618944, guid: e78ecfb3943b9f849b3cf6d6e0481a12, type: 2}
      propertyPath: m_RootOrder
      value: 3
      objectReference: {fileID: 0}
    m_RemovedComponents: []
  m_ParentPrefab: {fileID: 100100000, guid: e78ecfb3943b9f849b3cf6d6e0481a12, type: 2}
  m_IsPrefabParent: 0
--- !u!1001 &776951000
Prefab:
  m_ObjectHideFlags: 0
  serializedVersion: 2
  m_Modification:
    m_TransformParent: {fileID: 0}
    m_Modifications:
    - target: {fileID: 114128032695616766, guid: f3b85e145bad72f4c9c69fa446c99495,
        type: 2}
      propertyPath: AttackerPrefabsArray.Array.size
      value: 2
      objectReference: {fileID: 0}
    - target: {fileID: 114727904804421938, guid: f3b85e145bad72f4c9c69fa446c99495,
        type: 2}
      propertyPath: AttackerPrefabsArray.Array.size
      value: 2
      objectReference: {fileID: 0}
    - target: {fileID: 114557898556146658, guid: f3b85e145bad72f4c9c69fa446c99495,
        type: 2}
      propertyPath: AttackerPrefabsArray.Array.size
      value: 2
      objectReference: {fileID: 0}
    - target: {fileID: 114461808880751094, guid: f3b85e145bad72f4c9c69fa446c99495,
        type: 2}
      propertyPath: AttackerPrefabsArray.Array.size
      value: 2
      objectReference: {fileID: 0}
    - target: {fileID: 114672489274718302, guid: f3b85e145bad72f4c9c69fa446c99495,
        type: 2}
      propertyPath: AttackerPrefabsArray.Array.size
      value: 2
      objectReference: {fileID: 0}
    - target: {fileID: 4398712061614436, guid: f3b85e145bad72f4c9c69fa446c99495, type: 2}
      propertyPath: m_LocalPosition.x
      value: 0
      objectReference: {fileID: 0}
    - target: {fileID: 4398712061614436, guid: f3b85e145bad72f4c9c69fa446c99495, type: 2}
      propertyPath: m_LocalPosition.y
      value: 0
      objectReference: {fileID: 0}
    - target: {fileID: 4398712061614436, guid: f3b85e145bad72f4c9c69fa446c99495, type: 2}
      propertyPath: m_LocalPosition.z
      value: 0
      objectReference: {fileID: 0}
    - target: {fileID: 4398712061614436, guid: f3b85e145bad72f4c9c69fa446c99495, type: 2}
      propertyPath: m_LocalRotation.x
      value: 0
      objectReference: {fileID: 0}
    - target: {fileID: 4398712061614436, guid: f3b85e145bad72f4c9c69fa446c99495, type: 2}
      propertyPath: m_LocalRotation.y
      value: 0
      objectReference: {fileID: 0}
    - target: {fileID: 4398712061614436, guid: f3b85e145bad72f4c9c69fa446c99495, type: 2}
      propertyPath: m_LocalRotation.z
      value: 0
      objectReference: {fileID: 0}
    - target: {fileID: 4398712061614436, guid: f3b85e145bad72f4c9c69fa446c99495, type: 2}
      propertyPath: m_LocalRotation.w
      value: 1
      objectReference: {fileID: 0}
    - target: {fileID: 4398712061614436, guid: f3b85e145bad72f4c9c69fa446c99495, type: 2}
      propertyPath: m_RootOrder
      value: 2
      objectReference: {fileID: 0}
    - target: {fileID: 114128032695616766, guid: f3b85e145bad72f4c9c69fa446c99495,
        type: 2}
      propertyPath: AttackerPrefabsArray.Array.data[0]
      value: 
      objectReference: {fileID: 114411225986928750, guid: aa81442cb9c31a5468194e90593a114d,
        type: 2}
    - target: {fileID: 114727904804421938, guid: f3b85e145bad72f4c9c69fa446c99495,
        type: 2}
      propertyPath: AttackerPrefabsArray.Array.data[0]
      value: 
      objectReference: {fileID: 114411225986928750, guid: aa81442cb9c31a5468194e90593a114d,
        type: 2}
    - target: {fileID: 114557898556146658, guid: f3b85e145bad72f4c9c69fa446c99495,
        type: 2}
      propertyPath: AttackerPrefabsArray.Array.data[0]
      value: 
      objectReference: {fileID: 114411225986928750, guid: aa81442cb9c31a5468194e90593a114d,
        type: 2}
    - target: {fileID: 114461808880751094, guid: f3b85e145bad72f4c9c69fa446c99495,
        type: 2}
      propertyPath: AttackerPrefabsArray.Array.data[0]
      value: 
      objectReference: {fileID: 114411225986928750, guid: aa81442cb9c31a5468194e90593a114d,
        type: 2}
    - target: {fileID: 114672489274718302, guid: f3b85e145bad72f4c9c69fa446c99495,
        type: 2}
      propertyPath: AttackerPrefabsArray.Array.data[0]
      value: 
      objectReference: {fileID: 114037272437814502, guid: 0e33490baa9372148bd9a99618f1c2a9,
        type: 2}
    - target: {fileID: 1953550228042754, guid: f3b85e145bad72f4c9c69fa446c99495, type: 2}
      propertyPath: m_TagString
      value: Untagged
      objectReference: {fileID: 0}
    - target: {fileID: 1795819971525790, guid: f3b85e145bad72f4c9c69fa446c99495, type: 2}
      propertyPath: m_TagString
      value: Untagged
      objectReference: {fileID: 0}
    - target: {fileID: 1829752360281602, guid: f3b85e145bad72f4c9c69fa446c99495, type: 2}
      propertyPath: m_TagString
      value: Untagged
      objectReference: {fileID: 0}
    - target: {fileID: 1730097733683682, guid: f3b85e145bad72f4c9c69fa446c99495, type: 2}
      propertyPath: m_TagString
      value: Untagged
      objectReference: {fileID: 0}
    - target: {fileID: 1698221684135672, guid: f3b85e145bad72f4c9c69fa446c99495, type: 2}
      propertyPath: m_TagString
      value: Untagged
      objectReference: {fileID: 0}
    - target: {fileID: 114727904804421938, guid: f3b85e145bad72f4c9c69fa446c99495,
        type: 2}
      propertyPath: AttackerPrefabsArray.Array.data[1]
      value: 
      objectReference: {fileID: 114359158659761738, guid: 26edbd513a500a94a90b3d1cff8d44b8,
        type: 2}
    - target: {fileID: 114128032695616766, guid: f3b85e145bad72f4c9c69fa446c99495,
        type: 2}
      propertyPath: AttackerPrefabsArray.Array.data[1]
      value: 
      objectReference: {fileID: 114037272437814502, guid: 0e33490baa9372148bd9a99618f1c2a9,
        type: 2}
    - target: {fileID: 114557898556146658, guid: f3b85e145bad72f4c9c69fa446c99495,
        type: 2}
      propertyPath: AttackerPrefabsArray.Array.data[1]
      value: 
      objectReference: {fileID: 114411225986928750, guid: aa81442cb9c31a5468194e90593a114d,
        type: 2}
    - target: {fileID: 114461808880751094, guid: f3b85e145bad72f4c9c69fa446c99495,
        type: 2}
      propertyPath: AttackerPrefabsArray.Array.data[1]
      value: 
      objectReference: {fileID: 114411225986928750, guid: aa81442cb9c31a5468194e90593a114d,
        type: 2}
    - target: {fileID: 114672489274718302, guid: f3b85e145bad72f4c9c69fa446c99495,
        type: 2}
      propertyPath: AttackerPrefabsArray.Array.data[1]
      value: 
      objectReference: {fileID: 114411225986928750, guid: aa81442cb9c31a5468194e90593a114d,
        type: 2}
    m_RemovedComponents: []
  m_ParentPrefab: {fileID: 100100000, guid: f3b85e145bad72f4c9c69fa446c99495, type: 2}
  m_IsPrefabParent: 0
--- !u!1001 &1192927837
Prefab:
  m_ObjectHideFlags: 0
  serializedVersion: 2
  m_Modification:
    m_TransformParent: {fileID: 0}
    m_Modifications:
    - target: {fileID: 4144714088837690, guid: 04aa1012f10ea524fa16810271f6ba2a, type: 2}
      propertyPath: m_LocalPosition.x
      value: 0
      objectReference: {fileID: 0}
    - target: {fileID: 4144714088837690, guid: 04aa1012f10ea524fa16810271f6ba2a, type: 2}
      propertyPath: m_LocalPosition.y
      value: 3
      objectReference: {fileID: 0}
    - target: {fileID: 4144714088837690, guid: 04aa1012f10ea524fa16810271f6ba2a, type: 2}
      propertyPath: m_LocalPosition.z
      value: 0
      objectReference: {fileID: 0}
    - target: {fileID: 4144714088837690, guid: 04aa1012f10ea524fa16810271f6ba2a, type: 2}
      propertyPath: m_LocalRotation.x
      value: 0
      objectReference: {fileID: 0}
    - target: {fileID: 4144714088837690, guid: 04aa1012f10ea524fa16810271f6ba2a, type: 2}
      propertyPath: m_LocalRotation.y
      value: 0
      objectReference: {fileID: 0}
    - target: {fileID: 4144714088837690, guid: 04aa1012f10ea524fa16810271f6ba2a, type: 2}
      propertyPath: m_LocalRotation.z
      value: 0
      objectReference: {fileID: 0}
    - target: {fileID: 4144714088837690, guid: 04aa1012f10ea524fa16810271f6ba2a, type: 2}
      propertyPath: m_LocalRotation.w
      value: 1
      objectReference: {fileID: 0}
    - target: {fileID: 4144714088837690, guid: 04aa1012f10ea524fa16810271f6ba2a, type: 2}
      propertyPath: m_RootOrder
      value: 4
      objectReference: {fileID: 0}
    m_RemovedComponents: []
  m_ParentPrefab: {fileID: 100100000, guid: 04aa1012f10ea524fa16810271f6ba2a, type: 2}
  m_IsPrefabParent: 0
--- !u!1001 &1387022259
Prefab:
  m_ObjectHideFlags: 0
  serializedVersion: 2
  m_Modification:
    m_TransformParent: {fileID: 0}
    m_Modifications:
    - target: {fileID: 224764393446356952, guid: 591f52029950ad6489aa6df81993ba64,
        type: 2}
      propertyPath: m_LocalPosition.x
      value: 0
      objectReference: {fileID: 0}
    - target: {fileID: 224764393446356952, guid: 591f52029950ad6489aa6df81993ba64,
        type: 2}
      propertyPath: m_LocalPosition.y
      value: 0
      objectReference: {fileID: 0}
    - target: {fileID: 224764393446356952, guid: 591f52029950ad6489aa6df81993ba64,
        type: 2}
      propertyPath: m_LocalPosition.z
      value: 0
      objectReference: {fileID: 0}
    - target: {fileID: 224764393446356952, guid: 591f52029950ad6489aa6df81993ba64,
        type: 2}
      propertyPath: m_LocalRotation.x
      value: -0
      objectReference: {fileID: 0}
    - target: {fileID: 224764393446356952, guid: 591f52029950ad6489aa6df81993ba64,
        type: 2}
      propertyPath: m_LocalRotation.y
      value: -0
      objectReference: {fileID: 0}
    - target: {fileID: 224764393446356952, guid: 591f52029950ad6489aa6df81993ba64,
        type: 2}
      propertyPath: m_LocalRotation.z
      value: -0
      objectReference: {fileID: 0}
    - target: {fileID: 224764393446356952, guid: 591f52029950ad6489aa6df81993ba64,
        type: 2}
      propertyPath: m_LocalRotation.w
      value: 1
      objectReference: {fileID: 0}
    - target: {fileID: 224764393446356952, guid: 591f52029950ad6489aa6df81993ba64,
        type: 2}
      propertyPath: m_RootOrder
      value: 6
      objectReference: {fileID: 0}
    - target: {fileID: 224764393446356952, guid: 591f52029950ad6489aa6df81993ba64,
        type: 2}
      propertyPath: m_AnchoredPosition.x
      value: 0
      objectReference: {fileID: 0}
    - target: {fileID: 224764393446356952, guid: 591f52029950ad6489aa6df81993ba64,
        type: 2}
      propertyPath: m_AnchoredPosition.y
      value: -0.100997925
      objectReference: {fileID: 0}
    - target: {fileID: 224764393446356952, guid: 591f52029950ad6489aa6df81993ba64,
        type: 2}
      propertyPath: m_SizeDelta.x
      value: 100
      objectReference: {fileID: 0}
    - target: {fileID: 224764393446356952, guid: 591f52029950ad6489aa6df81993ba64,
        type: 2}
      propertyPath: m_SizeDelta.y
      value: 100
      objectReference: {fileID: 0}
    - target: {fileID: 224764393446356952, guid: 591f52029950ad6489aa6df81993ba64,
        type: 2}
      propertyPath: m_AnchorMin.x
      value: 0.5
      objectReference: {fileID: 0}
    - target: {fileID: 224764393446356952, guid: 591f52029950ad6489aa6df81993ba64,
        type: 2}
      propertyPath: m_AnchorMin.y
      value: 0.5
      objectReference: {fileID: 0}
    - target: {fileID: 224764393446356952, guid: 591f52029950ad6489aa6df81993ba64,
        type: 2}
      propertyPath: m_AnchorMax.x
      value: 0.5
      objectReference: {fileID: 0}
    - target: {fileID: 224764393446356952, guid: 591f52029950ad6489aa6df81993ba64,
        type: 2}
      propertyPath: m_AnchorMax.y
      value: 0.5
      objectReference: {fileID: 0}
    - target: {fileID: 224764393446356952, guid: 591f52029950ad6489aa6df81993ba64,
        type: 2}
      propertyPath: m_Pivot.x
      value: 0.5
      objectReference: {fileID: 0}
    - target: {fileID: 224764393446356952, guid: 591f52029950ad6489aa6df81993ba64,
        type: 2}
      propertyPath: m_Pivot.y
      value: 0.499
      objectReference: {fileID: 0}
    m_RemovedComponents: []
  m_ParentPrefab: {fileID: 100100000, guid: 591f52029950ad6489aa6df81993ba64, type: 2}
  m_IsPrefabParent: 0
--- !u!1001 &1954681220
Prefab:
  m_ObjectHideFlags: 0
  serializedVersion: 2
  m_Modification:
    m_TransformParent: {fileID: 0}
    m_Modifications:
    - target: {fileID: 4854601355188034, guid: 3873614ec812e4648b1778a754ddd007, type: 2}
      propertyPath: m_LocalPosition.x
      value: 9
      objectReference: {fileID: 0}
    - target: {fileID: 4854601355188034, guid: 3873614ec812e4648b1778a754ddd007, type: 2}
      propertyPath: m_LocalPosition.y
      value: 0
      objectReference: {fileID: 0}
    - target: {fileID: 4854601355188034, guid: 3873614ec812e4648b1778a754ddd007, type: 2}
      propertyPath: m_LocalPosition.z
      value: 0
      objectReference: {fileID: 0}
    - target: {fileID: 4854601355188034, guid: 3873614ec812e4648b1778a754ddd007, type: 2}
      propertyPath: m_LocalRotation.x
      value: -0
      objectReference: {fileID: 0}
    - target: {fileID: 4854601355188034, guid: 3873614ec812e4648b1778a754ddd007, type: 2}
      propertyPath: m_LocalRotation.y
      value: -0
      objectReference: {fileID: 0}
    - target: {fileID: 4854601355188034, guid: 3873614ec812e4648b1778a754ddd007, type: 2}
      propertyPath: m_LocalRotation.z
      value: -0
      objectReference: {fileID: 0}
    - target: {fileID: 4854601355188034, guid: 3873614ec812e4648b1778a754ddd007, type: 2}
      propertyPath: m_LocalRotation.w
      value: 1
      objectReference: {fileID: 0}
    - target: {fileID: 4854601355188034, guid: 3873614ec812e4648b1778a754ddd007, type: 2}
      propertyPath: m_RootOrder
      value: 5
      objectReference: {fileID: 0}
    - target: {fileID: 1395442615270700, guid: 3873614ec812e4648b1778a754ddd007, type: 2}
      propertyPath: m_Name
      value: Pause
      objectReference: {fileID: 0}
    m_RemovedComponents: []
  m_ParentPrefab: {fileID: 100100000, guid: 3873614ec812e4648b1778a754ddd007, type: 2}
  m_IsPrefabParent: 0
--- !u!1001 &2030944774
Prefab:
  m_ObjectHideFlags: 0
  serializedVersion: 2
  m_Modification:
    m_TransformParent: {fileID: 0}
    m_Modifications:
    - target: {fileID: 4575084491929920, guid: 4dab66cf26e758a42923a3b78049e559, type: 2}
      propertyPath: m_LocalPosition.x
      value: 0
      objectReference: {fileID: 0}
    - target: {fileID: 4575084491929920, guid: 4dab66cf26e758a42923a3b78049e559, type: 2}
      propertyPath: m_LocalPosition.y
      value: 0
      objectReference: {fileID: 0}
    - target: {fileID: 4575084491929920, guid: 4dab66cf26e758a42923a3b78049e559, type: 2}
      propertyPath: m_LocalPosition.z
      value: 0
      objectReference: {fileID: 0}
    - target: {fileID: 4575084491929920, guid: 4dab66cf26e758a42923a3b78049e559, type: 2}
      propertyPath: m_LocalRotation.x
      value: 0
      objectReference: {fileID: 0}
    - target: {fileID: 4575084491929920, guid: 4dab66cf26e758a42923a3b78049e559, type: 2}
      propertyPath: m_LocalRotation.y
      value: 0
      objectReference: {fileID: 0}
    - target: {fileID: 4575084491929920, guid: 4dab66cf26e758a42923a3b78049e559, type: 2}
      propertyPath: m_LocalRotation.z
      value: 0
      objectReference: {fileID: 0}
    - target: {fileID: 4575084491929920, guid: 4dab66cf26e758a42923a3b78049e559, type: 2}
      propertyPath: m_LocalRotation.w
      value: 1
      objectReference: {fileID: 0}
    - target: {fileID: 4575084491929920, guid: 4dab66cf26e758a42923a3b78049e559, type: 2}
      propertyPath: m_RootOrder
      value: 1
      objectReference: {fileID: 0}
    m_RemovedComponents: []
  m_ParentPrefab: {fileID: 100100000, guid: 4dab66cf26e758a42923a3b78049e559, type: 2}
  m_IsPrefabParent: 0
